<svg width="360" height="170" viewBox="0 0 360 170" fill="none" xmlns="http://www.w3.org/2000/svg">
<rect width="180" height="85" fill="#FFDECA"/>
<rect x="180" width="180" height="85" fill="#E4E4E4"/>
<rect y="85" width="180" height="85" fill="#FDF4CD"/>
<rect x="180" y="85" width="180" height="85" fill="#B3B3B3"/>
<path d="M239.486 47.0332C239.154 47.3926 238.746 47.6641 238.262 47.8477C237.781 48.0273 237.254 48.1172 236.68 48.1172C235.699 48.1172 234.938 47.8145 234.395 47.209C233.852 46.5996 233.572 45.7148 233.557 44.5547V43.0195C233.557 41.8438 233.812 40.9395 234.324 40.3066C234.84 39.6699 235.59 39.3516 236.574 39.3516C237.5 39.3516 238.197 39.5801 238.666 40.0371C239.139 40.4941 239.412 41.2109 239.486 42.1875H237.811C237.764 41.6445 237.65 41.2754 237.471 41.0801C237.291 40.8809 237.01 40.7812 236.627 40.7812C236.162 40.7812 235.824 40.9512 235.613 41.291C235.402 41.6309 235.293 42.1719 235.285 42.9141V44.4609C235.285 45.2383 235.4 45.8047 235.631 46.1602C235.865 46.5117 236.248 46.6875 236.779 46.6875C237.119 46.6875 237.395 46.6191 237.605 46.4824L237.758 46.377V44.8125H236.551V43.5117H239.486V47.0332ZM243.289 44.8828H242.434V48H240.711V39.4688H243.459C244.322 39.4688 244.988 39.6934 245.457 40.1426C245.93 40.5879 246.166 41.2227 246.166 42.0469C246.166 43.1797 245.754 43.9727 244.93 44.4258L246.424 47.918V48H244.572L243.289 44.8828ZM242.434 43.4473H243.412C243.756 43.4473 244.014 43.334 244.186 43.1074C244.357 42.877 244.443 42.5703 244.443 42.1875C244.443 41.332 244.109 40.9043 243.441 40.9043H242.434V43.4473ZM251.756 44.3086H249.072V46.5703H252.248V48H247.35V39.4688H252.236V40.9043H249.072V42.9199H251.756V44.3086ZM255.816 43.3008L257.1 39.4688H258.975L256.689 44.9062V48H254.943V44.9062L252.652 39.4688H254.527L255.816 43.3008ZM265.109 44.8828H264.254V48H262.531V39.4688H265.279C266.143 39.4688 266.809 39.6934 267.277 40.1426C267.75 40.5879 267.986 41.2227 267.986 42.0469C267.986 43.1797 267.574 43.9727 266.75 44.4258L268.244 47.918V48H266.393L265.109 44.8828ZM264.254 43.4473H265.232C265.576 43.4473 265.834 43.334 266.006 43.1074C266.178 42.877 266.264 42.5703 266.264 42.1875C266.264 41.332 265.93 40.9043 265.262 40.9043H264.254V43.4473ZM275.152 48H273.436V44.3496H270.893V48H269.17V39.4688H270.893V42.9199H273.436V39.4688H275.152V48ZM278.34 48H276.617V39.4688H278.34V48ZM285.752 48H284.029L281.51 42.4043V48H279.787V39.4688H281.51L284.035 45.0703V39.4688H285.752V48ZM293.141 44.502C293.141 45.6465 292.869 46.5352 292.326 47.168C291.787 47.8008 291.037 48.1172 290.076 48.1172C289.119 48.1172 288.367 47.8047 287.82 47.1797C287.273 46.5508 286.996 45.6719 286.988 44.543V43.084C286.988 41.9121 287.26 40.998 287.803 40.3418C288.346 39.6816 289.1 39.3516 290.064 39.3516C291.014 39.3516 291.762 39.6758 292.309 40.3242C292.855 40.9688 293.133 41.875 293.141 43.043V44.502ZM291.412 43.0723C291.412 42.3027 291.303 41.7305 291.084 41.3555C290.865 40.9805 290.525 40.793 290.064 40.793C289.607 40.793 289.27 40.9746 289.051 41.3379C288.832 41.6973 288.719 42.2461 288.711 42.9844V44.502C288.711 45.248 288.822 45.7988 289.045 46.1543C289.268 46.5059 289.611 46.6816 290.076 46.6816C290.525 46.6816 290.859 46.5098 291.078 46.166C291.297 45.8184 291.408 45.2812 291.412 44.5547V43.0723Z" fill="#333333"/>
<path d="M233.686 132V123.469H236.322C237.213 123.469 237.889 123.668 238.35 124.066C238.814 124.461 239.047 125.041 239.047 125.807C239.047 126.24 238.951 126.613 238.76 126.926C238.568 127.238 238.307 127.467 237.975 127.611C238.357 127.721 238.652 127.941 238.859 128.273C239.066 128.602 239.17 129.008 239.17 129.492C239.17 130.32 238.941 130.945 238.484 131.367C238.031 131.789 237.373 132 236.51 132H233.686ZM235.408 128.291V130.57H236.51C236.818 130.57 237.053 130.475 237.213 130.283C237.373 130.092 237.453 129.82 237.453 129.469C237.453 128.703 237.176 128.311 236.621 128.291H235.408ZM235.408 127.037H236.305C236.98 127.037 237.318 126.688 237.318 125.988C237.318 125.602 237.24 125.324 237.084 125.156C236.928 124.988 236.674 124.904 236.322 124.904H235.408V127.037ZM242.146 130.57H245.17V132H240.424V123.469H242.146V130.57ZM250.355 130.254H248.006L247.549 132H245.727L248.393 123.469H249.969L252.652 132H250.812L250.355 130.254ZM248.381 128.818H249.975L249.178 125.777L248.381 128.818ZM259.109 129.158C259.066 130.131 258.793 130.867 258.289 131.367C257.785 131.867 257.074 132.117 256.156 132.117C255.191 132.117 254.451 131.801 253.936 131.168C253.424 130.531 253.168 129.625 253.168 128.449V127.014C253.168 125.842 253.434 124.939 253.965 124.307C254.496 123.67 255.234 123.352 256.18 123.352C257.109 123.352 257.814 123.611 258.295 124.131C258.779 124.65 259.055 125.396 259.121 126.369H257.393C257.377 125.768 257.283 125.354 257.111 125.127C256.943 124.896 256.633 124.781 256.18 124.781C255.719 124.781 255.393 124.943 255.201 125.268C255.01 125.588 254.908 126.117 254.896 126.855V128.467C254.896 129.314 254.99 129.896 255.178 130.213C255.369 130.529 255.695 130.688 256.156 130.688C256.609 130.688 256.922 130.578 257.094 130.359C257.266 130.137 257.363 129.736 257.387 129.158H259.109ZM262.572 128.707L261.893 129.562V132H260.17V123.469H261.893V127.189L262.438 126.27L264.025 123.469H266.135L263.691 127.219L266.176 132H264.131L262.572 128.707ZM273.184 129.762C273.184 129.414 273.094 129.152 272.914 128.977C272.738 128.797 272.416 128.611 271.947 128.42C271.092 128.096 270.477 127.717 270.102 127.283C269.727 126.846 269.539 126.33 269.539 125.736C269.539 125.018 269.793 124.441 270.301 124.008C270.812 123.57 271.461 123.352 272.246 123.352C272.77 123.352 273.236 123.463 273.646 123.686C274.057 123.904 274.371 124.215 274.59 124.617C274.812 125.02 274.924 125.477 274.924 125.988H273.207C273.207 125.59 273.121 125.287 272.949 125.08C272.781 124.869 272.537 124.764 272.217 124.764C271.916 124.764 271.682 124.854 271.514 125.033C271.346 125.209 271.262 125.447 271.262 125.748C271.262 125.982 271.355 126.195 271.543 126.387C271.73 126.574 272.062 126.77 272.539 126.973C273.371 127.273 273.975 127.643 274.35 128.08C274.729 128.518 274.918 129.074 274.918 129.75C274.918 130.492 274.682 131.072 274.209 131.49C273.736 131.908 273.094 132.117 272.281 132.117C271.73 132.117 271.229 132.004 270.775 131.777C270.322 131.551 269.967 131.227 269.709 130.805C269.455 130.383 269.328 129.885 269.328 129.311H271.057C271.057 129.803 271.152 130.16 271.344 130.383C271.535 130.605 271.848 130.717 272.281 130.717C272.883 130.717 273.184 130.398 273.184 129.762ZM281.604 128.83L282.412 123.469H284.117L282.6 132H280.871L279.875 126.973L278.891 132H277.156L275.633 123.469H277.35L278.152 128.824L279.154 123.469H280.602L281.604 128.83ZM288.863 130.254H286.514L286.057 132H284.234L286.9 123.469H288.477L291.16 132H289.32L288.863 130.254ZM286.889 128.818H288.482L287.686 125.777L286.889 128.818ZM297.928 132H296.205L293.686 126.404V132H291.963V123.469H293.686L296.211 129.07V123.469H297.928V132Z" fill="#333333"/>
<path d="M52.2285 34.8301L53.0371 29.4688H54.7422L53.2246 38H51.4961L50.5 32.9727L49.5156 38H47.7812L46.2578 29.4688H47.9746L48.7773 34.8242L49.7793 29.4688H51.2266L52.2285 34.8301ZM61.6797 34.502C61.6797 35.6465 61.4082 36.5352 60.8652 37.168C60.3262 37.8008 59.5762 38.1172 58.6152 38.1172C57.6582 38.1172 56.9062 37.8047 56.3594 37.1797C55.8125 36.5508 55.5352 35.6719 55.5273 34.543V33.084C55.5273 31.9121 55.7988 30.998 56.3418 30.3418C56.8848 29.6816 57.6387 29.3516 58.6035 29.3516C59.5527 29.3516 60.3008 29.6758 60.8477 30.3242C61.3945 30.9688 61.6719 31.875 61.6797 33.043V34.502ZM59.9512 33.0723C59.9512 32.3027 59.8418 31.7305 59.623 31.3555C59.4043 30.9805 59.0645 30.793 58.6035 30.793C58.1465 30.793 57.8086 30.9746 57.5898 31.3379C57.3711 31.6973 57.2578 32.2461 57.25 32.9844V34.502C57.25 35.248 57.3613 35.7988 57.584 36.1543C57.8066 36.5059 58.1504 36.6816 58.6152 36.6816C59.0645 36.6816 59.3984 36.5098 59.6172 36.166C59.8359 35.8184 59.9473 35.2812 59.9512 34.5547V33.0723ZM65.5 34.8828H64.6445V38H62.9219V29.4688H65.6699C66.5332 29.4688 67.1992 29.6934 67.668 30.1426C68.1406 30.5879 68.377 31.2227 68.377 32.0469C68.377 33.1797 67.9648 33.9727 67.1406 34.4258L68.6348 37.918V38H66.7832L65.5 34.8828ZM64.6445 33.4473H65.623C65.9668 33.4473 66.2246 33.334 66.3965 33.1074C66.5684 32.877 66.6543 32.5703 66.6543 32.1875C66.6543 31.332 66.3203 30.9043 65.6523 30.9043H64.6445V33.4473ZM71.9629 34.707L71.2832 35.5625V38H69.5605V29.4688H71.2832V33.1895L71.8281 32.2695L73.416 29.4688H75.5254L73.082 33.2188L75.5664 38H73.5215L71.9629 34.707ZM84.9766 34.502C84.9766 35.6465 84.7051 36.5352 84.1621 37.168C83.623 37.8008 82.873 38.1172 81.9121 38.1172C80.9551 38.1172 80.2031 37.8047 79.6562 37.1797C79.1094 36.5508 78.832 35.6719 78.8242 34.543V33.084C78.8242 31.9121 79.0957 30.998 79.6387 30.3418C80.1816 29.6816 80.9355 29.3516 81.9004 29.3516C82.8496 29.3516 83.5977 29.6758 84.1445 30.3242C84.6914 30.9688 84.9688 31.875 84.9766 33.043V34.502ZM83.248 33.0723C83.248 32.3027 83.1387 31.7305 82.9199 31.3555C82.7012 30.9805 82.3613 30.793 81.9004 30.793C81.4434 30.793 81.1055 30.9746 80.8867 31.3379C80.668 31.6973 80.5547 32.2461 80.5469 32.9844V34.502C80.5469 35.248 80.6582 35.7988 80.8809 36.1543C81.1035 36.5059 81.4473 36.6816 81.9121 36.6816C82.3613 36.6816 82.6953 36.5098 82.9141 36.166C83.1328 35.8184 83.2441 35.2812 83.248 34.5547V33.0723ZM92.1777 38H90.4551L87.9355 32.4043V38H86.2129V29.4688H87.9355L90.4609 35.0703V29.4688H92.1777V38ZM48.4082 49V52H46.6855V43.4688H49.5918C50.4355 43.4688 51.1074 43.7305 51.6074 44.2539C52.1113 44.7773 52.3633 45.457 52.3633 46.293C52.3633 47.1289 52.1152 47.7891 51.6191 48.2734C51.123 48.7578 50.4355 49 49.5566 49H48.4082ZM48.4082 47.5645H49.5918C49.9199 47.5645 50.1738 47.457 50.3535 47.2422C50.5332 47.0273 50.623 46.7148 50.623 46.3047C50.623 45.8789 50.5312 45.541 50.3477 45.291C50.1641 45.0371 49.918 44.9082 49.6094 44.9043H48.4082V47.5645ZM56.1016 48.8828H55.2461V52H53.5234V43.4688H56.2715C57.1348 43.4688 57.8008 43.6934 58.2695 44.1426C58.7422 44.5879 58.9785 45.2227 58.9785 46.0469C58.9785 47.1797 58.5664 47.9727 57.7422 48.4258L59.2363 51.918V52H57.3848L56.1016 48.8828ZM55.2461 47.4473H56.2246C56.5684 47.4473 56.8262 47.334 56.998 47.1074C57.1699 46.877 57.2559 46.5703 57.2559 46.1875C57.2559 45.332 56.9219 44.9043 56.2539 44.9043H55.2461V47.4473ZM64.5684 48.3086H61.8848V50.5703H65.0605V52H60.1621V43.4688H65.0488V44.9043H61.8848V46.9199H64.5684V48.3086ZM68.834 49.6562L70.2695 43.4688H72.1914L69.7305 52H67.9375L65.4941 43.4688H67.4043L68.834 49.6562ZM77.4004 48.3086H74.7168V50.5703H77.8926V52H72.9941V43.4688H77.8809V44.9043H74.7168V46.9199H77.4004V48.3086ZM84.8535 52H83.1309L80.6113 46.4043V52H78.8887V43.4688H80.6113L83.1367 49.0703V43.4688H84.8535V52ZM91.5859 44.9043H89.4766V52H87.748V44.9043H85.6738V43.4688H91.5859V44.9043ZM94.375 52H92.6523V43.4688H94.375V52ZM98.5996 49.6562L100.035 43.4688H101.957L99.4961 52H97.7031L95.2598 43.4688H97.1699L98.5996 49.6562ZM107.166 48.3086H104.482V50.5703H107.658V52H102.76V43.4688H107.646V44.9043H104.482V46.9199H107.166V48.3086ZM50.7578 64.2539H48.4082L47.9512 66H46.1289L48.7949 57.4688H50.3711L53.0547 66H51.2148L50.7578 64.2539ZM48.7832 62.8184H50.377L49.5801 59.7773L48.7832 62.8184ZM59.5117 63.1582C59.4688 64.1309 59.1953 64.8672 58.6914 65.3672C58.1875 65.8672 57.4766 66.1172 56.5586 66.1172C55.5938 66.1172 54.8535 65.8008 54.3379 65.168C53.8262 64.5312 53.5703 63.625 53.5703 62.4492V61.0137C53.5703 59.8418 53.8359 58.9395 54.3672 58.3066C54.8984 57.6699 55.6367 57.3516 56.582 57.3516C57.5117 57.3516 58.2168 57.6113 58.6973 58.1309C59.1816 58.6504 59.457 59.3965 59.5234 60.3691H57.7949C57.7793 59.7676 57.6855 59.3535 57.5137 59.127C57.3457 58.8965 57.0352 58.7812 56.582 58.7812C56.1211 58.7812 55.7949 58.9434 55.6035 59.2676C55.4121 59.5879 55.3105 60.1172 55.2988 60.8555V62.4668C55.2988 63.3145 55.3926 63.8965 55.5801 64.2129C55.7715 64.5293 56.0977 64.6875 56.5586 64.6875C57.0117 64.6875 57.3242 64.5781 57.4961 64.3594C57.668 64.1367 57.7656 63.7363 57.7891 63.1582H59.5117ZM65.9219 58.9043H63.8125V66H62.084V58.9043H60.0098V57.4688H65.9219V58.9043ZM68.7109 66H66.9883V57.4688H68.7109V66ZM76.1641 62.502C76.1641 63.6465 75.8926 64.5352 75.3496 65.168C74.8105 65.8008 74.0605 66.1172 73.0996 66.1172C72.1426 66.1172 71.3906 65.8047 70.8438 65.1797C70.2969 64.5508 70.0195 63.6719 70.0117 62.543V61.084C70.0117 59.9121 70.2832 58.998 70.8262 58.3418C71.3691 57.6816 72.123 57.3516 73.0879 57.3516C74.0371 57.3516 74.7852 57.6758 75.332 58.3242C75.8789 58.9688 76.1562 59.875 76.1641 61.043V62.502ZM74.4355 61.0723C74.4355 60.3027 74.3262 59.7305 74.1074 59.3555C73.8887 58.9805 73.5488 58.793 73.0879 58.793C72.6309 58.793 72.293 58.9746 72.0742 59.3379C71.8555 59.6973 71.7422 60.2461 71.7344 60.9844V62.502C71.7344 63.248 71.8457 63.7988 72.0684 64.1543C72.291 64.5059 72.6348 64.6816 73.0996 64.6816C73.5488 64.6816 73.8828 64.5098 74.1016 64.166C74.3203 63.8184 74.4316 63.2812 74.4355 62.5547V61.0723ZM83.3652 66H81.6426L79.123 60.4043V66H77.4004V57.4688H79.123L81.6484 63.0703V57.4688H83.3652V66ZM88.3516 63.7617C88.3516 63.4141 88.2617 63.1523 88.082 62.9766C87.9062 62.7969 87.584 62.6113 87.1152 62.4199C86.2598 62.0957 85.6445 61.7168 85.2695 61.2832C84.8945 60.8457 84.707 60.3301 84.707 59.7363C84.707 59.0176 84.9609 58.4414 85.4688 58.0078C85.9805 57.5703 86.6289 57.3516 87.4141 57.3516C87.9375 57.3516 88.4043 57.4629 88.8145 57.6855C89.2246 57.9043 89.5391 58.2148 89.7578 58.6172C89.9805 59.0195 90.0918 59.4766 90.0918 59.9883H88.375C88.375 59.5898 88.2891 59.2871 88.1172 59.0801C87.9492 58.8691 87.7051 58.7637 87.3848 58.7637C87.084 58.7637 86.8496 58.8535 86.6816 59.0332C86.5137 59.209 86.4297 59.4473 86.4297 59.748C86.4297 59.9824 86.5234 60.1953 86.7109 60.3867C86.8984 60.5742 87.2305 60.7695 87.707 60.9727C88.5391 61.2734 89.1426 61.6426 89.5176 62.0801C89.8965 62.5176 90.0859 63.0742 90.0859 63.75C90.0859 64.4922 89.8496 65.0723 89.377 65.4902C88.9043 65.9082 88.2617 66.1172 87.4492 66.1172C86.8984 66.1172 86.3965 66.0039 85.9434 65.7773C85.4902 65.5508 85.1348 65.2266 84.877 64.8047C84.623 64.3828 84.4961 63.8848 84.4961 63.3105H86.2246C86.2246 63.8027 86.3203 64.1602 86.5117 64.3828C86.7031 64.6055 87.0156 64.7168 87.4492 64.7168C88.0508 64.7168 88.3516 64.3984 88.3516 63.7617Z" fill="#333333"/>
<path d="M37.6855 127V118.469H39.9414C40.9375 118.469 41.7305 118.785 42.3203 119.418C42.9141 120.051 43.2168 120.918 43.2285 122.02V123.402C43.2285 124.523 42.9316 125.404 42.3379 126.045C41.748 126.682 40.9336 127 39.8945 127H37.6855ZM39.4082 119.904V125.57H39.9238C40.498 125.57 40.9023 125.42 41.1367 125.119C41.3711 124.814 41.4941 124.291 41.5059 123.549V122.066C41.5059 121.27 41.3945 120.715 41.1719 120.402C40.9492 120.086 40.5703 119.92 40.0352 119.904H39.4082ZM50.4766 123.502C50.4766 124.646 50.2051 125.535 49.6621 126.168C49.123 126.801 48.373 127.117 47.4121 127.117C46.4551 127.117 45.7031 126.805 45.1562 126.18C44.6094 125.551 44.332 124.672 44.3242 123.543V122.084C44.3242 120.912 44.5957 119.998 45.1387 119.342C45.6816 118.682 46.4355 118.352 47.4004 118.352C48.3496 118.352 49.0977 118.676 49.6445 119.324C50.1914 119.969 50.4688 120.875 50.4766 122.043V123.502ZM48.748 122.072C48.748 121.303 48.6387 120.73 48.4199 120.355C48.2012 119.98 47.8613 119.793 47.4004 119.793C46.9434 119.793 46.6055 119.975 46.3867 120.338C46.168 120.697 46.0547 121.246 46.0469 121.984V123.502C46.0469 124.248 46.1582 124.799 46.3809 125.154C46.6035 125.506 46.9473 125.682 47.4121 125.682C47.8613 125.682 48.1953 125.51 48.4141 125.166C48.6328 124.818 48.7441 124.281 48.748 123.555V122.072ZM57.4961 124.158C57.4531 125.131 57.1797 125.867 56.6758 126.367C56.1719 126.867 55.4609 127.117 54.543 127.117C53.5781 127.117 52.8379 126.801 52.3223 126.168C51.8105 125.531 51.5547 124.625 51.5547 123.449V122.014C51.5547 120.842 51.8203 119.939 52.3516 119.307C52.8828 118.67 53.6211 118.352 54.5664 118.352C55.4961 118.352 56.2012 118.611 56.6816 119.131C57.166 119.65 57.4414 120.396 57.5078 121.369H55.7793C55.7637 120.768 55.6699 120.354 55.498 120.127C55.3301 119.896 55.0195 119.781 54.5664 119.781C54.1055 119.781 53.7793 119.943 53.5879 120.268C53.3965 120.588 53.2949 121.117 53.2832 121.855V123.467C53.2832 124.314 53.377 124.896 53.5645 125.213C53.7559 125.529 54.082 125.688 54.543 125.688C54.9961 125.688 55.3086 125.578 55.4805 125.359C55.6523 125.137 55.75 124.736 55.7734 124.158H57.4961ZM64.1055 118.469V124.375C64.0977 125.262 63.8535 125.941 63.373 126.414C62.8926 126.883 62.2031 127.117 61.3047 127.117C60.3906 127.117 59.6914 126.879 59.207 126.402C58.7266 125.926 58.4863 125.236 58.4863 124.334V118.469H60.2207V124.34C60.2207 124.824 60.2988 125.17 60.4551 125.377C60.6113 125.584 60.8945 125.688 61.3047 125.688C61.7148 125.688 61.9961 125.586 62.1484 125.383C62.3008 125.176 62.3789 124.838 62.3828 124.369V118.469H64.1055ZM67.6621 118.469L69.2734 124.639L70.8789 118.469H73.1289V127H71.4004V124.691L71.5586 121.135L69.8535 127H68.6816L66.9766 121.135L67.1348 124.691V127H65.4121V118.469H67.6621ZM78.9238 123.309H76.2402V125.57H79.416V127H74.5176V118.469H79.4043V119.904H76.2402V121.92H78.9238V123.309ZM86.377 127H84.6543L82.1348 121.404V127H80.4121V118.469H82.1348L84.6602 124.07V118.469H86.377V127ZM93.1094 119.904H91V127H89.2715V119.904H87.1973V118.469H93.1094V119.904ZM100.586 125.254H98.2363L97.7793 127H95.957L98.623 118.469H100.199L102.883 127H101.043L100.586 125.254ZM98.6113 123.818H100.205L99.4082 120.777L98.6113 123.818ZM109.65 127H107.928L105.408 121.404V127H103.686V118.469H105.408L107.934 124.07V118.469H109.65V127ZM111.033 127V118.469H113.289C114.285 118.469 115.078 118.785 115.668 119.418C116.262 120.051 116.564 120.918 116.576 122.02V123.402C116.576 124.523 116.279 125.404 115.686 126.045C115.096 126.682 114.281 127 113.242 127H111.033ZM112.756 119.904V125.57H113.271C113.846 125.57 114.25 125.42 114.484 125.119C114.719 124.814 114.842 124.291 114.854 123.549V122.066C114.854 121.27 114.742 120.715 114.52 120.402C114.297 120.086 113.918 119.92 113.383 119.904H112.756ZM39.9355 132.469L41.5469 138.639L43.1523 132.469H45.4023V141H43.6738V138.691L43.832 135.135L42.127 141H40.9551L39.25 135.135L39.4082 138.691V141H37.6855V132.469H39.9355ZM52.7969 137.502C52.7969 138.646 52.5254 139.535 51.9824 140.168C51.4434 140.801 50.6934 141.117 49.7324 141.117C48.7754 141.117 48.0234 140.805 47.4766 140.18C46.9297 139.551 46.6523 138.672 46.6445 137.543V136.084C46.6445 134.912 46.916 133.998 47.459 133.342C48.002 132.682 48.7559 132.352 49.7207 132.352C50.6699 132.352 51.418 132.676 51.9648 133.324C52.5117 133.969 52.7891 134.875 52.7969 136.043V137.502ZM51.0684 136.072C51.0684 135.303 50.959 134.73 50.7402 134.355C50.5215 133.98 50.1816 133.793 49.7207 133.793C49.2637 133.793 48.9258 133.975 48.707 134.338C48.4883 134.697 48.375 135.246 48.3672 135.984V137.502C48.3672 138.248 48.4785 138.799 48.7012 139.154C48.9238 139.506 49.2676 139.682 49.7324 139.682C50.1816 139.682 50.5156 139.51 50.7344 139.166C50.9531 138.818 51.0645 138.281 51.0684 137.555V136.072ZM59.998 141H58.2754L55.7559 135.404V141H54.0332V132.469H55.7559L58.2812 138.07V132.469H59.998V141ZM63.1797 141H61.457V132.469H63.1797V141ZM69.9766 133.904H67.8672V141H66.1387V133.904H64.0645V132.469H69.9766V133.904ZM76.8086 137.502C76.8086 138.646 76.5371 139.535 75.9941 140.168C75.4551 140.801 74.7051 141.117 73.7441 141.117C72.7871 141.117 72.0352 140.805 71.4883 140.18C70.9414 139.551 70.6641 138.672 70.6562 137.543V136.084C70.6562 134.912 70.9277 133.998 71.4707 133.342C72.0137 132.682 72.7676 132.352 73.7324 132.352C74.6816 132.352 75.4297 132.676 75.9766 133.324C76.5234 133.969 76.8008 134.875 76.8086 136.043V137.502ZM75.0801 136.072C75.0801 135.303 74.9707 134.73 74.752 134.355C74.5332 133.98 74.1934 133.793 73.7324 133.793C73.2754 133.793 72.9375 133.975 72.7188 134.338C72.5 134.697 72.3867 135.246 72.3789 135.984V137.502C72.3789 138.248 72.4902 138.799 72.7129 139.154C72.9355 139.506 73.2793 139.682 73.7441 139.682C74.1934 139.682 74.5273 139.51 74.7461 139.166C74.9648 138.818 75.0762 138.281 75.0801 137.555V136.072ZM80.6289 137.883H79.7734V141H78.0508V132.469H80.7988C81.6621 132.469 82.3281 132.693 82.7969 133.143C83.2695 133.588 83.5059 134.223 83.5059 135.047C83.5059 136.18 83.0938 136.973 82.2695 137.426L83.7637 140.918V141H81.9121L80.6289 137.883ZM79.7734 136.447H80.752C81.0957 136.447 81.3535 136.334 81.5254 136.107C81.6973 135.877 81.7832 135.57 81.7832 135.188C81.7832 134.332 81.4492 133.904 80.7812 133.904H79.7734V136.447Z" fill="#333333"/>
</svg>
