[
  {
    "id": "1",
    "dataDate": "06 SEPT 2021",
    "title": "ISO 27001 certification",
    "img": "",
    "description":
      " Our ISO 27001 certification demonstrates that MitKat Advisory has invested in the people, processes, and technology to protect our and our client's valuable data. It provides evidence to our customers, investors, and other interested parties that we are managing information security according to international best practice. Having a ISO 27001-compliant ISMS helps us manage the confidentiality, integrity, and availability of all corporate data in an optimized and cost-effective way."
  }
]
