[
    {
      "featureType": "all",
      "elementType": "labels",
      "stylers": [
        {
          "visibility": "on"
        }
      ]
    },
    {
      "featureType": "all",
      "elementType": "labels.text.fill",
      "stylers": [
        
        {
          "color": "#eeeeee"
        }
      ]
    },
    {
      "featureType": "all",
      "elementType": "labels.text.stroke",
      "stylers": [
        {
          "visibility": "on"
        },
        {
          "color": "#000"
        },
        {
          "lightness": 0      }
      ]
    },
    {
      "featureType": "all",
      "elementType": "labels.icon",
      "stylers": [
        {
          "visibility": "off"
        }
      ]
    },
    {
      "featureType": "administrative",
      "elementType": "geometry.fill",
      "stylers": [
        {
          "color": "#eee"
        },
        {
          "lightness": 50      }
      ]
    },
    {
      "featureType": "administrative",
      "elementType": "geometry.stroke",
      "stylers": [
        {
          "color": "#0c1521"
        },
        {
          "lightness": 0      },
        {
          "weight": 1.2
        }
      ]
    },
    {
      "featureType": "administrative.country",
      "elementType": "labels.text.fill",
      "stylers": [
        {
          "color": "#757575"
        }
      ]
    },
    {
      "featureType": "administrative.locality",
      "elementType": "labels.text.fill",
      "stylers": [
        {
          "color": "#eeeeee"
        }
      ]
    },
    {
      "featureType": "administrative.neighborhood",
      "elementType": "labels.text.fill",
      "stylers": [
        {
          "color": "#000"
        }
      ]
    },
    {
      "featureType": "landscape",
      "elementType": "geometry",
      "stylers": [
        {
          "color": "#111826"
        },
        {
          "lightness": 0
        }
      ]
    },
    {
      "featureType": "poi",
      "elementType": "geometry",
      "stylers": [
        {
          "color": "#374054"
        },
        {
          "lightness": 10      },
        {
          "visibility": "on"
        }
      ]
    },
    {
      "featureType": "poi",
      "elementType": "labels",
      "stylers": [
        {
          "visibility": "off"
        },
        {
          "hue": "#ff0000"
        }
      ]
    },
    {
      "featureType": "poi",
      "elementType": "labels.icon",
      "stylers": [
        {
          "saturation": "-100"
        }
      ]
    },
    {
      "featureType": "poi.business",
      "elementType": "geometry",
      "stylers": [
        {
          "visibility": "on"
        }
      ]
    },
    {
      "featureType": "road.highway",
      "elementType": "geometry.fill",
      "stylers": [
        {
          "color": "#eee"
        },
        {
          "lightness": 10
        }
      ]
    },
    {
      "featureType": "road.highway",
      "elementType": "geometry.stroke",
      "stylers": [
        {
          "visibility": "off"
        }
      ]
    },
    {
      "featureType": "road.arterial",
      "elementType": "geometry",
      "stylers": [
        {
          "color": "#0c1521"
        },
        {
          "lightness": 0      }
      ]
    },
    {
      "featureType": "road.arterial",
      "elementType": "geometry.fill",
      "stylers": [
        {
          "color": "#575757"
        }
      ]
    },
    {
      "featureType": "road.arterial",
      "elementType": "labels.text.fill",
      "stylers": [
        {
          "color": "#c3c3c3"
        }
      ]
    },
    {
      "featureType": "road.arterial",
      "elementType": "labels.text.stroke",
      "stylers": [
        {
          "color": "#2c2c2c"
        }
      ]
    },
    {
      "featureType": "road.local",
      "elementType": "geometry",
      "stylers": [
        {
          "color": "#0c1521"
        },
        {
          "lightness": 0      }
      ]
    },
    {
      "featureType": "road.local",
      "elementType": "labels.text.fill",
      "stylers": [
        {
          "color": "#5f5f5f"
        },
        {
          "visibility": "on"
        }
      ]
    },
    {
      "featureType": "road.local",
      "elementType": "labels.text.stroke",
      "stylers": [
        {
          "visibility": "off"
        }
      ]
    },
    {
      "featureType": "transit",
      "elementType": "geometry",
      "stylers": [
        {
          "color": "#717171"
        },
        {
          "lightness": 0      }
      ]
    },
    {
      "featureType": "water",
      "elementType": "geometry",
      "stylers": [
        {
          "color": "#060c14"
        },
        {
          "lightness": 0      }
      ]
    }
  ]